11/19/2009, 02:08:51
    Failed to start program '$$CommandLine$$', error code = 2
12/22/2010, 12:38:23
    Failed to start program 'C:\Offshore\V2x_2010DEC16\OrganizationTrunk\ServiceManager\bin\Debug\VRM_Maint_Service.exe', error code = 2
12/23/2010, 14:58:28
    StartServiceCtrlDispatcher failed, error code = 1063
